%YAML 1.1
%TAG !u! tag:unity3d.com,2011:
--- !u!74 &7400000
AnimationClip:
  m_ObjectHideFlags: 0
  m_CorrespondingSourceObject: {fileID: 0}
  m_PrefabInternal: {fileID: 0}
  m_Name: Moving_Monster_2
  serializedVersion: 6
  m_Legacy: 0
  m_Compressed: 0
  m_UseHighQualityCurve: 1
  m_RotationCurves: []
  m_CompressedRotationCurves: []
  m_EulerCurves: []
  m_PositionCurves: []
  m_ScaleCurves: []
  m_FloatCurves: []
  m_PPtrCurves:
  - curve:
    - time: 0
      value: {fileID: 21300000, guid: bb135b941490d4a00afae5d79b1cb857, type: 3}
    - time: 0.1
      value: {fileID: 21300000, guid: a9f03ef7057a84a7a8eaceb90de2eaf3, type: 3}
    - time: 0.2
      value: {fileID: 21300000, guid: b97a00f32b4df4189b874ac763d9f708, type: 3}
    - time: 0.3
      value: {fileID: 21300000, guid: aa41b25849e27410dbe24436e4eb12d8, type: 3}
    - time: 0.4
      value: {fileID: 21300000, guid: 63b050c1fc530420fb5f0a5eb28fdf7e, type: 3}
    - time: 0.5
      value: {fileID: 21300000, guid: 8415ec9c608104d739f1cc32d2bba9c0, type: 3}
    - time: 0.6
      value: {fileID: 21300000, guid: dea5729e3faea46eebea65b6d89a3f79, type: 3}
    attribute: m_Sprite
    path: 
    classID: 212
    script: {fileID: 0}
  m_SampleRate: 10
  m_WrapMode: 0
  m_Bounds:
    m_Center: {x: 0, y: 0, z: 0}
    m_Extent: {x: 0, y: 0, z: 0}
  m_ClipBindingConstant:
    genericBindings:
    - serializedVersion: 2
      path: 0
      attribute: 0
      script: {fileID: 0}
      typeID: 212
      customType: 23
      isPPtrCurve: 1
    pptrCurveMapping:
    - {fileID: 21300000, guid: bb135b941490d4a00afae5d79b1cb857, type: 3}
    - {fileID: 21300000, guid: a9f03ef7057a84a7a8eaceb90de2eaf3, type: 3}
    - {fileID: 21300000, guid: b97a00f32b4df4189b874ac763d9f708, type: 3}
    - {fileID: 21300000, guid: aa41b25849e27410dbe24436e4eb12d8, type: 3}
    - {fileID: 21300000, guid: 63b050c1fc530420fb5f0a5eb28fdf7e, type: 3}
    - {fileID: 21300000, guid: 8415ec9c608104d739f1cc32d2bba9c0, type: 3}
    - {fileID: 21300000, guid: dea5729e3faea46eebea65b6d89a3f79, type: 3}
  m_AnimationClipSettings:
    serializedVersion: 2
    m_AdditiveReferencePoseClip: {fileID: 0}
    m_AdditiveReferencePoseTime: 0
    m_StartTime: 0
    m_StopTime: 0.70000005
    m_OrientationOffsetY: 0
    m_Level: 0
    m_CycleOffset: 0
    m_HasAdditiveReferencePose: 0
    m_LoopTime: 1
    m_LoopBlend: 0
    m_LoopBlendOrientation: 0
    m_LoopBlendPositionY: 0
    m_LoopBlendPositionXZ: 0
    m_KeepOriginalOrientation: 0
    m_KeepOriginalPositionY: 1
    m_KeepOriginalPositionXZ: 0
    m_HeightFromFeet: 0
    m_Mirror: 0
  m_EditorCurves: []
  m_EulerEditorCurves: []
  m_HasGenericRootTransform: 0
  m_HasMotionFloatCurves: 0
  m_GenerateMotionCurves: 0
  m_Events: []
