%YAML 1.1
%TAG !u! tag:unity3d.com,2011:
--- !u!74 &7400000
AnimationClip:
  m_ObjectHideFlags: 0
  m_CorrespondingSourceObject: {fileID: 0}
  m_PrefabInternal: {fileID: 0}
  m_Name: Moving
  serializedVersion: 6
  m_Legacy: 0
  m_Compressed: 0
  m_UseHighQualityCurve: 1
  m_RotationCurves: []
  m_CompressedRotationCurves: []
  m_EulerCurves: []
  m_PositionCurves: []
  m_ScaleCurves: []
  m_FloatCurves: []
  m_PPtrCurves:
  - curve:
    - time: 0
      value: {fileID: 21300000, guid: 0b30a9ba2d4bb4c8e9984e3289f26126, type: 3}
    - time: 0.055555556
      value: {fileID: 21300000, guid: 87a142590b5b14908b57bddcd7a3dc01, type: 3}
    - time: 0.11111111
      value: {fileID: 21300000, guid: e23508d7812f04066a594280f26fbbf9, type: 3}
    - time: 0.16666667
      value: {fileID: 21300000, guid: bfb1c0acd68eb415d95915b271aec5fc, type: 3}
    - time: 0.22222222
      value: {fileID: 21300000, guid: af6f3f2a322bb47a089170e1c447dbec, type: 3}
    - time: 0.2777778
      value: {fileID: 21300000, guid: 7250b9c65e5554f76afa08d795752502, type: 3}
    - time: 0.33333334
      value: {fileID: 21300000, guid: c3a3b6294d92041378db5f8da2f9efc5, type: 3}
    attribute: m_Sprite
    path: 
    classID: 212
    script: {fileID: 0}
  m_SampleRate: 18
  m_WrapMode: 0
  m_Bounds:
    m_Center: {x: 0, y: 0, z: 0}
    m_Extent: {x: 0, y: 0, z: 0}
  m_ClipBindingConstant:
    genericBindings:
    - serializedVersion: 2
      path: 0
      attribute: 0
      script: {fileID: 0}
      typeID: 212
      customType: 23
      isPPtrCurve: 1
    pptrCurveMapping:
    - {fileID: 21300000, guid: 0b30a9ba2d4bb4c8e9984e3289f26126, type: 3}
    - {fileID: 21300000, guid: 87a142590b5b14908b57bddcd7a3dc01, type: 3}
    - {fileID: 21300000, guid: e23508d7812f04066a594280f26fbbf9, type: 3}
    - {fileID: 21300000, guid: bfb1c0acd68eb415d95915b271aec5fc, type: 3}
    - {fileID: 21300000, guid: af6f3f2a322bb47a089170e1c447dbec, type: 3}
    - {fileID: 21300000, guid: 7250b9c65e5554f76afa08d795752502, type: 3}
    - {fileID: 21300000, guid: c3a3b6294d92041378db5f8da2f9efc5, type: 3}
  m_AnimationClipSettings:
    serializedVersion: 2
    m_AdditiveReferencePoseClip: {fileID: 0}
    m_AdditiveReferencePoseTime: 0
    m_StartTime: 0
    m_StopTime: 0.3888889
    m_OrientationOffsetY: 0
    m_Level: 0
    m_CycleOffset: 0
    m_HasAdditiveReferencePose: 0
    m_LoopTime: 1
    m_LoopBlend: 0
    m_LoopBlendOrientation: 0
    m_LoopBlendPositionY: 0
    m_LoopBlendPositionXZ: 0
    m_KeepOriginalOrientation: 0
    m_KeepOriginalPositionY: 1
    m_KeepOriginalPositionXZ: 0
    m_HeightFromFeet: 0
    m_Mirror: 0
  m_EditorCurves: []
  m_EulerEditorCurves: []
  m_HasGenericRootTransform: 0
  m_HasMotionFloatCurves: 0
  m_GenerateMotionCurves: 0
  m_Events: []
